^Y:\GD\MOOC\ALGO\ALGO VS\MEDIAN MAINTENANCE\DEBUG\MAXHEAP.OBJ|Y:\GD\MOOC\ALGO\ALGO VS\MEDIAN MAINTENANCE\DEBUG\MEDIAN MAINTENANCE.OBJ|Y:\GD\MOOC\ALGO\ALGO VS\MEDIAN MAINTENANCE\DEBUG\MINHEAP.OBJ|Y:\GD\MOOC\ALGO\ALGO VS\MEDIAN MAINTENANCE\DEBUG\STDAFX.OBJ
Y:\GD\MOOC\ALGO\ALGO VS\DEBUG\MEDIAN MAINTENANCE.ILK
Y:\GD\MOOC\ALGO\ALGO VS\DEBUG\MEDIAN MAINTENANCE.EXE
Y:\GD\MOOC\ALGO\ALGO VS\DEBUG\MEDIAN MAINTENANCE.PDB
